{
  "start_time": "2023-05-23T12:24:52.068566974Z",
  "stop_time": "2023-05-23T12:24:53.185153285Z",
  "status": "Completed",
  "commit_hash": "aa7a130a62505de799156df2f6b01236dc5fdb6e",
  "branch": "refs/heads/analyze",
  "compiler": "rustc 1.69.0 (84c898d65 2023-04-16)",
  "version": "0.1.0",
  "name": "viscek"
}